C:\softdev_65160306\DatabaseProject\src\main\java\com\mycompany\databaseproject\InsertDatabase.java
C:\softdev_65160306\DatabaseProject\src\main\java\com\mycompany\databaseproject\ConnectDatabase.java
C:\softdev_65160306\DatabaseProject\src\main\java\com\mycompany\databaseproject\SelectDatabase.java
